vivado/riscv/riscv.sim/sim_1/behav/xsim/dump.vcd
$date
   Thu Apr  3 19:44:17 2025
$end

$version
  2024.2.0
$end

$timescale
  1ps
$end

$scope module top_testbench $end
$var reg 1 ! clk $end
$scope module dut $end
$var wire 1 " CLK12MHZ $end
$var reg 1 # led_green $end
$var reg 1 $ D1 $end
$var reg 1 % D2 $end
$var reg 1 & D3 $end
$var reg 32 ' slow_clock_counter [31:0] $end
$var reg 32 ( uart_tx_counter [31:0] $end
$var wire 1 ) slow_clock $end
$var wire 1 * resetn $end
$var reg 25 + rststate [24:0] $end
$scope module rvmulti $end
$var wire 1 ) clk $end
$var wire 1 * resetn $end
$var wire 1 , RegWrite $end
$var wire 1 - Zero $end
$var wire 32 . ReadData [31:0] $end
$var wire 1 / PCWrite $end
$var wire 1 0 AdrSrc $end
$var wire 1 1 MemWrite $end
$var wire 1 2 IRWrite $end
$var wire 2 3 ResultSrc [1:0] $end
$var wire 3 4 ImmSrc [2:0] $end
$var wire 3 5 ALUControl [2:0] $end
$var wire 7 6 op [6:0] $end
$var wire 7 7 oldOp [6:0] $end
$var wire 3 8 funct3 [2:0] $end
$var wire 1 9 funct7b5 $end
$var wire 2 : ALUSrcB [1:0] $end
$var wire 2 ; ALUSrcA [1:0] $end
$scope module ctr $end
$var wire 1 ) clk $end
$var wire 1 * resetn $end
$var wire 7 6 op [6:0] $end
$var wire 7 7 oldOp [6:0] $end
$var wire 3 8 funct3 [2:0] $end
$var wire 1 9 funct7b5 $end
$var wire 1 - Zero $end
$var wire 32 . ReadData [31:0] $end
$var wire 1 / o_PCWrite $end
$var wire 1 0 o_AdrSrc $end
$var wire 1 1 o_MemWrite $end
$var wire 1 2 o_IRWrite $end
$var wire 2 3 o_ResultSrc [1:0] $end
$var wire 3 5 o_ALUControl [2:0] $end
$var wire 2 : o_ALUSrcB [1:0] $end
$var wire 2 ; o_ALUSrcA [1:0] $end
$var wire 3 4 o_ImmSrc [2:0] $end
$var wire 1 , o_RegWrite $end
$var reg 1 < PCWrite $end
$var reg 1 = AdrSrc $end
$var reg 1 > MemWrite $end
$var reg 1 ? IRWrite $end
$var reg 2 @ ResultSrc [1:0] $end
$var reg 2 A ALUSrcB [1:0] $end
$var reg 2 B ALUSrcA [1:0] $end
$var reg 1 C RegWrite $end
$var reg 5 D current_state [4:0] $end
$var reg 5 E next_state [4:0] $end
$var wire 3 F ALUControlAluDec [2:0] $end
$var wire 3 G ALUControlImmSrcDec [2:0] $end
$var wire 7 H newOp [6:0] $end
$scope module ad $end
$var wire 7 6 op [6:0] $end
$var wire 1 I opb5 $end
$var wire 3 8 funct3 [2:0] $end
$var wire 1 9 funct7b5 $end
$var reg 3 J ALUControl [2:0] $end
$var wire 1 K RtypeSub $end
$var reg 2 L ALUOp [1:0] $end
$upscope $end
$scope module isd $end
$var wire 7 6 op [6:0] $end
$var reg 3 M ImmSrc [2:0] $end
$upscope $end
$upscope $end
$scope module dp $end
$var wire 1 ) clk $end
$var wire 1 * resetn $end
$var wire 7 6 op [6:0] $end
$var reg 7 N oldOp [6:0] $end
$var wire 3 8 funct3 [2:0] $end
$var wire 1 9 funct7b5 $end
$var wire 1 - Zero $end
$var wire 32 . ReadData [31:0] $end
$var wire 1 / PCWrite $end
$var wire 1 0 AdrSrc $end
$var wire 1 1 MemWrite $end
$var wire 1 2 IRWrite $end
$var wire 2 3 ResultSrc [1:0] $end
$var wire 3 5 ALUControl [2:0] $end
$var wire 2 : ALUSrcB [1:0] $end
$var wire 2 ; ALUSrcA [1:0] $end
$var wire 3 4 ImmSrc [2:0] $end
$var wire 1 , RegWrite $end
$var wire 32 O PC [31:0] $end
$var wire 32 P OldPC [31:0] $end
$var wire 32 Q adr [31:0] $end
$var wire 32 R data [31:0] $end
$var wire 32 S Instr [31:0] $end
$var wire 32 T RD1 [31:0] $end
$var wire 32 U RD2 [31:0] $end
$var wire 32 V register_output_A [31:0] $end
$var wire 32 W WriteData [31:0] $end
$var wire 32 X ALUResult [31:0] $end
$var wire 32 Y ALUOut [31:0] $end
$var wire 32 Z ImmExt [31:0] $end
$var wire 32 [ SrcB [31:0] $end
$var wire 32 \ Result [31:0] $end
$var wire 32 ] SrcA [31:0] $end
$scope module ram $end
$var wire 1 ) clka $end
$var wire 1 * rsta $end
$var wire 1 ^ ena $end
$var wire 4 _ wea [3:0] $end
$var wire 32 Q addra [31:0] $end
$var wire 32 W dina [31:0] $end
$var wire 32 . douta [31:0] $end
$var wire 1 ` rsta_busy $end
$scope module inst $end
$var wire 1 ) clka $end
$var wire 1 * rsta $end
$var wire 1 ^ ena $end
$var wire 1 a regcea $end
$var wire 4 _ wea [3:0] $end
$var wire 32 Q addra [31:0] $end
$var wire 32 W dina [31:0] $end
$var wire 32 . douta [31:0] $end
$var wire 1 b clkb $end
$var wire 1 c rstb $end
$var wire 1 d enb $end
$var wire 1 e regceb $end
$var wire 4 f web [3:0] $end
$var wire 32 g addrb [31:0] $end
$var wire 32 h dinb [31:0] $end
$var wire 32 i doutb [31:0] $end
$var wire 1 j injectsbiterr $end
$var wire 1 k injectdbiterr $end
$var wire 1 l sbiterr $end
$var wire 1 m dbiterr $end
$var wire 32 n rdaddrecc [31:0] $end
$var wire 1 o eccpipece $end
$var wire 1 p sleep $end
$var wire 1 q deepsleep $end
$var wire 1 r shutdown $end
$var wire 1 ` rsta_busy $end
$var wire 1 s rstb_busy $end
$var wire 1 t s_aclk $end
$var wire 1 u s_aresetn $end
$var wire 4 v s_axi_awid [3:0] $end
$var wire 32 w s_axi_awaddr [31:0] $end
$var wire 8 x s_axi_awlen [7:0] $end
$var wire 3 y s_axi_awsize [2:0] $end
$var wire 2 z s_axi_awburst [1:0] $end
$var wire 1 { s_axi_awvalid $end
$var wire 1 | s_axi_awready $end
$var wire 32 } s_axi_wdata [31:0] $end
$var wire 4 ~ s_axi_wstrb [3:0] $end
$var wire 1 !! s_axi_wlast $end
$var wire 1 "! s_axi_wvalid $end
$var wire 1 #! s_axi_wready $end
$var wire 4 $! s_axi_bid [3:0] $end
$var wire 2 %! s_axi_bresp [1:0] $end
$var wire 1 &! s_axi_bvalid $end
$var wire 1 '! s_axi_bready $end
$var wire 4 (! s_axi_arid [3:0] $end
$var wire 32 )! s_axi_araddr [31:0] $end
$var wire 8 *! s_axi_arlen [7:0] $end
$var wire 3 +! s_axi_arsize [2:0] $end
$var wire 2 ,! s_axi_arburst [1:0] $end
$var wire 1 -! s_axi_arvalid $end
$var wire 1 .! s_axi_arready $end
$var wire 4 /! s_axi_rid [3:0] $end
$var wire 32 0! s_axi_rdata [31:0] $end
$var wire 2 1! s_axi_rresp [1:0] $end
$var wire 1 2! s_axi_rlast $end
$var wire 1 3! s_axi_rvalid $end
$var wire 1 4! s_axi_rready $end
$var wire 1 5! s_axi_injectsbiterr $end
$var wire 1 6! s_axi_injectdbiterr $end
$var wire 1 7! s_axi_sbiterr $end
$var wire 1 8! s_axi_dbiterr $end
$var wire 32 9! s_axi_rdaddrecc [31:0] $end
$var wire 1 :! SBITERR $end
$var wire 1 ;! DBITERR $end
$var wire 1 <! S_AXI_AWREADY $end
$var wire 1 =! S_AXI_WREADY $end
$var wire 1 >! S_AXI_BVALID $end
$var wire 1 ?! S_AXI_ARREADY $end
$var wire 1 @! S_AXI_RLAST $end
$var wire 1 A! S_AXI_RVALID $end
$var wire 1 B! S_AXI_SBITERR $end
$var wire 1 C! S_AXI_DBITERR $end
$var wire 4 D! WEA [3:0] $end
$var wire 32 E! ADDRA [31:0] $end
$var wire 32 F! DINA [31:0] $end
$var wire 32 G! DOUTA [31:0] $end
$var wire 4 H! WEB [3:0] $end
$var wire 32 I! ADDRB [31:0] $end
$var wire 32 J! DINB [31:0] $end
$var wire 32 K! DOUTB [31:0] $end
$var wire 32 L! RDADDRECC [31:0] $end
$var wire 4 M! S_AXI_AWID [3:0] $end
$var wire 32 N! S_AXI_AWADDR [31:0] $end
$var wire 8 O! S_AXI_AWLEN [7:0] $end
$var wire 3 P! S_AXI_AWSIZE [2:0] $end
$var wire 2 Q! S_AXI_AWBURST [1:0] $end
$var wire 32 R! S_AXI_WDATA [31:0] $end
$var wire 4 S! S_AXI_WSTRB [3:0] $end
$var wire 4 T! S_AXI_BID [3:0] $end
$var wire 2 U! S_AXI_BRESP [1:0] $end
$var wire 4 V! S_AXI_ARID [3:0] $end
$var wire 32 W! S_AXI_ARADDR [31:0] $end
$var wire 8 X! S_AXI_ARLEN [7:0] $end
$var wire 3 Y! S_AXI_ARSIZE [2:0] $end
$var wire 2 Z! S_AXI_ARBURST [1:0] $end
$var wire 4 [! S_AXI_RID [3:0] $end
$var wire 32 \! S_AXI_RDATA [31:0] $end
$var wire 2 ]! S_AXI_RRESP [1:0] $end
$var wire 32 ^! S_AXI_RDADDRECC [31:0] $end
$var wire 4 _! WEB_parameterized [3:0] $end
$var wire 1 `! ECCPIPECE $end
$var wire 1 a! SLEEP $end
$var reg 1 b! RSTA_BUSY $end
$var reg 1 c! RSTB_BUSY $end
$var wire 1 d! CLKA $end
$var wire 1 e! RSTA $end
$var wire 1 f! ENA $end
$var wire 1 g! REGCEA $end
$var wire 1 h! CLKB $end
$var wire 1 i! RSTB $end
$var wire 1 j! ENB $end
$var wire 1 k! REGCEB $end
$var wire 1 l! INJECTSBITERR $end
$var wire 1 m! INJECTDBITERR $end
$var wire 1 n! S_ACLK $end
$var wire 1 o! S_ARESETN $end
$var wire 1 p! S_AXI_AWVALID $end
$var wire 1 q! S_AXI_WLAST $end
$var wire 1 r! S_AXI_WVALID $end
$var wire 1 s! S_AXI_BREADY $end
$var wire 1 t! S_AXI_ARVALID $end
$var wire 1 u! S_AXI_RREADY $end
$var wire 1 v! S_AXI_INJECTSBITERR $end
$var wire 1 w! S_AXI_INJECTDBITERR $end
$var reg 1 x! injectsbiterr_in $end
$var reg 1 y! injectdbiterr_in $end
$var reg 1 z! rsta_in $end
$var reg 1 {! ena_in $end
$var reg 1 |! regcea_in $end
$var reg 4 }! wea_in [3:0] $end
$var reg 32 ~! addra_in [31:0] $end
$var reg 32 !" dina_in [31:0] $end
$var wire 32 "" s_axi_awaddr_out_c [31:0] $end
$var wire 32 #" s_axi_araddr_out_c [31:0] $end
$var wire 1 $" s_axi_wr_en_c $end
$var wire 1 %" s_axi_rd_en_c $end
$var wire 1 &" s_aresetn_a_c $end
$var wire 8 '" s_axi_arlen_c [7:0] $end
$var wire 4 (" s_axi_rid_c [3:0] $end
$var wire 32 )" s_axi_rdata_c [31:0] $end
$var wire 2 *" s_axi_rresp_c [1:0] $end
$var wire 1 +" s_axi_rlast_c $end
$var wire 1 ," s_axi_rvalid_c $end
$var wire 1 -" s_axi_rready_c $end
$var wire 1 ." regceb_c $end
$var wire 7 /" s_axi_payload_c [6:0] $end
$var wire 7 0" m_axi_payload_c [6:0] $end
$var reg 5 1" RSTA_SHFT_REG [4:0] $end
$var reg 1 2" POR_A $end
$var reg 5 3" RSTB_SHFT_REG [4:0] $end
$var reg 1 4" POR_B $end
$var reg 1 5" ENA_dly $end
$var reg 1 6" ENA_dly_D $end
$var reg 1 7" ENB_dly $end
$var reg 1 8" ENB_dly_D $end
$var wire 1 9" RSTA_I_SAFE $end
$var wire 1 :" RSTB_I_SAFE $end
$var wire 1 ;" ENA_I_SAFE $end
$var wire 1 <" ENB_I_SAFE $end
$var reg 1 =" ram_rstram_a_busy $end
$var reg 1 >" ram_rstreg_a_busy $end
$var reg 1 ?" ram_rstram_b_busy $end
$var reg 1 @" ram_rstreg_b_busy $end
$var reg 1 A" ENA_dly_reg $end
$var reg 1 B" ENB_dly_reg $end
$var reg 1 C" ENA_dly_reg_D $end
$var reg 1 D" ENB_dly_reg_D $end
$var wire 4 E" \native_mem_mapped_module.rdaddrecc_i  [3:0] $end
$var wire 26 F" \native_mem_mapped_module.msb_zero_i  [25:0] $end
$var wire 2 G" \native_mem_mapped_module.lsb_zero_i  [1:0] $end
$scope module native_mem_mapped_module.blk_mem_gen_v8_4_9_inst $end
$var wire 1 d! CLKA $end
$var wire 1 9" RSTA $end
$var wire 1 ;" ENA $end
$var wire 1 H" REGCEA $end
$var wire 4 I" WEA [3:0] $end
$var wire 4 J" ADDRA [3:0] $end
$var wire 32 K" DINA [31:0] $end
$var wire 32 G! DOUTA [31:0] $end
$var wire 1 h! CLKB $end
$var wire 1 :" RSTB $end
$var wire 1 <" ENB $end
$var wire 1 k! REGCEB $end
$var wire 4 H! WEB [3:0] $end
$var wire 4 L" ADDRB [5:2] $end
$var wire 32 J! DINB [31:0] $end
$var wire 32 K! DOUTB [31:0] $end
$var wire 1 M" INJECTSBITERR $end
$var wire 1 N" INJECTDBITERR $end
$var wire 1 `! ECCPIPECE $end
$var wire 1 a! SLEEP $end
$var wire 1 :! SBITERR $end
$var wire 1 ;! DBITERR $end
$var wire 4 E" RDADDRECC [3:0] $end
$var reg 39 O" doublebit_error [38:0] $end
$var reg 32 P" memory_out_a [31:0] $end
$var reg 32 Q" memory_out_b [31:0] $end
$var reg 1 R" sbiterr_in $end
$var wire 1 S" sbiterr_sdp $end
$var reg 1 T" dbiterr_in $end
$var wire 1 U" dbiterr_sdp $end
$var wire 32 V" dout_i [31:0] $end
$var wire 1 W" dbiterr_i $end
$var wire 1 X" sbiterr_i $end
$var wire 4 Y" rdaddrecc_i [3:0] $end
$var reg 4 Z" rdaddrecc_in [3:0] $end
$var wire 4 [" rdaddrecc_sdp [3:0] $end
$var reg 32 \" inita_val [31:0] $end
$var reg 32 ]" initb_val [31:0] $end
$var reg 1 ^" is_collision $end
$var reg 1 _" is_collision_a $end
$var reg 1 `" is_collision_delay_a $end
$var reg 1 a" is_collision_b $end
$var reg 1 b" is_collision_delay_b $end
$var integer 32 c" status [31:0] $end
$var integer 32 d" initfile [31:0] $end
$var integer 32 e" meminitfile [31:0] $end
$var reg 32 f" mif_data [31:0] $end
$var reg 32 g" mem_data [31:0] $end
$var reg 256 h" inita_str [255:0] $end
$var reg 256 i" initb_str [255:0] $end
$var reg 256 j" default_data_str [255:0] $end
$var reg 8184 k" init_file_str [8183:0] $end
$var reg 8184 l" mem_init_file_str [8183:0] $end
$var integer 32 m" cnt [31:0] $end
$var integer 32 n" write_addr_a_width [31:0] $end
$var integer 32 o" read_addr_a_width [31:0] $end
$var integer 32 p" write_addr_b_width [31:0] $end
$var integer 32 q" read_addr_b_width [31:0] $end
$var wire 1 r" ena_i $end
$var wire 1 s" enb_i $end
$var wire 1 t" reseta_i $end
$var wire 1 u" resetb_i $end
$var wire 4 v" wea_i [3:0] $end
$var wire 4 w" web_i [3:0] $end
$var wire 1 x" rea_i $end
$var wire 1 y" reb_i $end
$var wire 1 z" rsta_outp_stage $end
$var wire 1 {" rstb_outp_stage $end
$var wire 4 |" \async_coll.addra_delay  [3:0] $end
$var wire 1 }" \async_coll.wea_delay  [0:0] $end
$var wire 1 ~" \async_coll.ena_delay  $end
$var wire 4 !# \async_coll.addrb_delay  [3:0] $end
$var wire 1 "# \async_coll.web_delay  [0:0] $end
$var wire 1 ## \async_coll.enb_delay  $end
$scope module reg_a $end
$var wire 1 d! CLK $end
$var wire 1 z" RST $end
$var wire 1 ;" EN $end
$var wire 1 H" REGCE $end
$var wire 32 $# DIN_I [31:0] $end
$var reg 32 %# DOUT [31:0] $end
$var wire 1 &# SBITERR_IN_I $end
$var wire 1 '# DBITERR_IN_I $end
$var reg 1 (# SBITERR $end
$var reg 1 )# DBITERR $end
$var wire 4 *# RDADDRECC_IN_I [3:0] $end
$var wire 1 +# ECCPIPECE $end
$var reg 4 ,# RDADDRECC [3:0] $end
$var reg 32 -# out_regs [31:0] $end
$var reg 4 .# rdaddrecc_regs [3:0] $end
$var reg 1 /# sbiterr_regs [0:0] $end
$var reg 1 0# dbiterr_regs [0:0] $end
$var reg 256 1# init_str [255:0] $end
$var reg 32 2# init_val [31:0] $end
$var wire 1 3# en_i $end
$var wire 1 4# regce_i $end
$var wire 1 5# rst_i $end
$var reg 32 6# DIN [31:0] $end
$var reg 4 7# RDADDRECC_IN [3:0] $end
$var reg 1 8# SBITERR_IN $end
$var reg 1 9# DBITERR_IN $end
$upscope $end
$scope module reg_b $end
$var wire 1 h! CLK $end
$var wire 1 {" RST $end
$var wire 1 <" EN $end
$var wire 1 k! REGCE $end
$var wire 32 :# DIN_I [31:0] $end
$var reg 32 ;# DOUT [31:0] $end
$var wire 1 <# SBITERR_IN_I $end
$var wire 1 =# DBITERR_IN_I $end
$var reg 1 ># SBITERR $end
$var reg 1 ?# DBITERR $end
$var wire 4 @# RDADDRECC_IN_I [3:0] $end
$var wire 1 `! ECCPIPECE $end
$var reg 4 A# RDADDRECC [3:0] $end
$var reg 32 B# out_regs [31:0] $end
$var reg 4 C# rdaddrecc_regs [3:0] $end
$var reg 1 D# sbiterr_regs [0:0] $end
$var reg 1 E# dbiterr_regs [0:0] $end
$var reg 256 F# init_str [255:0] $end
$var reg 32 G# init_val [31:0] $end
$var wire 1 H# en_i $end
$var wire 1 I# regce_i $end
$var wire 1 J# rst_i $end
$var reg 32 K# DIN [31:0] $end
$var reg 4 L# RDADDRECC_IN [3:0] $end
$var reg 1 M# SBITERR_IN $end
$var reg 1 N# DBITERR_IN $end
$upscope $end
$scope module has_softecc_output_reg_stage $end
$var wire 1 h! CLK $end
$var wire 32 V" DIN [31:0] $end
$var reg 32 O# DOUT [31:0] $end
$var wire 1 X" SBITERR_IN $end
$var wire 1 W" DBITERR_IN $end
$var reg 1 P# SBITERR $end
$var reg 1 Q# DBITERR $end
$var wire 4 Y" RDADDRECC_IN [3:0] $end
$var reg 4 R# RDADDRECC [3:0] $end
$var reg 32 S# dout_i [31:0] $end
$var reg 1 T# sbiterr_i $end
$var reg 1 U# dbiterr_i $end
$var reg 4 V# rdaddrecc_i [3:0] $end
$upscope $end
$scope task write_a $end
$var reg 4 W# addr [3:0] $end
$var reg 4 X# byte_en [3:0] $end
$var reg 32 Y# data [31:0] $end
$var reg 1 Z# inj_sbiterr $end
$var reg 1 [# inj_dbiterr $end
$var reg 32 \# current_contents [31:0] $end
$var reg 4 ]# address [3:0] $end
$var integer 32 ^# i [31:0] $end
$upscope $end
$scope task write_b $end
$var reg 4 _# addr [3:0] $end
$var reg 4 `# byte_en [3:0] $end
$var reg 32 a# data [31:0] $end
$var reg 32 b# current_contents [31:0] $end
$var reg 4 c# address [3:0] $end
$var integer 32 d# i [31:0] $end
$upscope $end
$scope task read_a $end
$var reg 4 e# addr [3:0] $end
$var reg 1 f# reset $end
$var reg 4 g# address [3:0] $end
$var integer 32 h# i [31:0] $end
$upscope $end
$scope task read_b $end
$var reg 4 i# addr [3:0] $end
$var reg 1 j# reset $end
$var reg 4 k# address [3:0] $end
$var integer 32 l# i [31:0] $end
$upscope $end
$scope task init_memory $end
$var integer 32 m# i [31:0] $end
$var integer 32 n# j [31:0] $end
$var integer 32 o# addr_step [31:0] $end
$var integer 32 p# status [31:0] $end
$var reg 32 q# default_data [31:0] $end
$upscope $end
$scope function log2roundup $end
$var integer 32 r# log2roundup [31:0] $end
$var integer 32 s# data_value [31:0] $end
$var integer 32 t# width [31:0] $end
$var integer 32 u# cnt [31:0] $end
$upscope $end
$scope function collision_check $end
$var integer 32 v# collision_check [31:0] $end
$var reg 4 w# addr_a [3:0] $end
$var integer 32 x# iswrite_a [31:0] $end
$var reg 4 y# addr_b [3:0] $end
$var integer 32 z# iswrite_b [31:0] $end
$var reg 1 {# c_aw_bw $end
$var reg 1 |# c_aw_br $end
$var reg 1 }# c_ar_bw $end
$var integer 32 ~# scaled_addra_to_waddrb_width [31:0] $end
$var integer 32 !$ scaled_addrb_to_waddrb_width [31:0] $end
$var integer 32 "$ scaled_addra_to_waddra_width [31:0] $end
$var integer 32 #$ scaled_addrb_to_waddra_width [31:0] $end
$var integer 32 $$ scaled_addra_to_raddrb_width [31:0] $end
$var integer 32 %$ scaled_addrb_to_raddrb_width [31:0] $end
$var integer 32 &$ scaled_addra_to_raddra_width [31:0] $end
$var integer 32 '$ scaled_addrb_to_raddra_width [31:0] $end
$upscope $end
$upscope $end
$upscope $end
$upscope $end
$scope module OldPCFF $end
$var wire 1 ) clk $end
$var wire 1 * resetn $end
$var wire 1 2 en $end
$var wire 32 O d [31:0] $end
$var reg 32 ($ q [31:0] $end
$upscope $end
$scope module pcreg $end
$var wire 1 ) clk $end
$var wire 1 * resetn $end
$var wire 1 / en $end
$var wire 32 \ d [31:0] $end
$var reg 32 )$ q [31:0] $end
$upscope $end
$scope module addrmux $end
$var wire 32 O d0 [31:0] $end
$var wire 32 \ d1 [31:0] $end
$var wire 1 0 s $end
$var wire 32 Q y [31:0] $end
$upscope $end
$scope module InstrFF $end
$var wire 1 ) clk $end
$var wire 1 * resetn $end
$var wire 1 2 en $end
$var wire 32 . d [31:0] $end
$var reg 32 *$ q [31:0] $end
$upscope $end
$scope module DataFF $end
$var wire 1 ) clk $end
$var wire 1 * resetn $end
$var wire 32 . d [31:0] $end
$var reg 32 +$ q [31:0] $end
$upscope $end
$scope module rf $end
$var wire 1 ) clk $end
$var wire 1 , we3 $end
$var wire 5 ,$ a1 [19:15] $end
$var wire 5 -$ a2 [24:20] $end
$var wire 5 .$ a3 [11:7] $end
$var wire 32 \ wd3 [31:0] $end
$var wire 32 T rd1 [31:0] $end
$var wire 32 U rd2 [31:0] $end
$upscope $end
$scope module Data_RD1 $end
$var wire 1 ) clk $end
$var wire 1 * resetn $end
$var wire 32 T d [31:0] $end
$var reg 32 /$ q [31:0] $end
$upscope $end
$scope module Data_RD2 $end
$var wire 1 ) clk $end
$var wire 1 * resetn $end
$var wire 32 U d [31:0] $end
$var reg 32 0$ q [31:0] $end
$upscope $end
$scope module ext $end
$var wire 32 S instr [31:0] $end
$var wire 3 4 immsrc [2:0] $end
$var reg 32 1$ immext [31:0] $end
$upscope $end
$scope module srcamux $end
$var wire 32 O d0 [31:0] $end
$var wire 32 P d1 [31:0] $end
$var wire 32 V d2 [31:0] $end
$var wire 32 2$ d3 [31:0] $end
$var wire 2 ; s [1:0] $end
$var wire 32 ] y [31:0] $end
$upscope $end
$scope module srcbmux $end
$var wire 32 W d0 [31:0] $end
$var wire 32 Z d1 [31:0] $end
$var wire 32 3$ d2 [31:0] $end
$var wire 2 : s [1:0] $end
$var wire 32 [ y [31:0] $end
$upscope $end
$scope module alu $end
$var wire 32 ] a_in [31:0] $end
$var wire 32 [ b_in [31:0] $end
$var wire 3 5 ALUControl [2:0] $end
$var reg 32 4$ ALUResult [31:0] $end
$var reg 1 5$ Z $end
$upscope $end
$scope module aluResult $end
$var wire 1 ) clk $end
$var wire 1 * resetn $end
$var wire 32 X d [31:0] $end
$var reg 32 6$ q [31:0] $end
$upscope $end
$scope module resultmux $end
$var wire 32 Y d0 [31:0] $end
$var wire 32 R d1 [31:0] $end
$var wire 32 X d2 [31:0] $end
$var wire 2 3 s [1:0] $end
$var wire 32 \ y [31:0] $end
$upscope $end
$upscope $end
$upscope $end
$upscope $end
$upscope $end
$enddefinitions $end

#0
$dumpvars
1!
0!!
b0 !"
bx !#
bx !$
1"
0"!
bz ""
x"#
bx "$
0#
z#!
bz #"
x##
bx #$
x$
bz $!
z$"
b0 $#
bx $$
x%
bz %!
z%"
b0 %#
bx %$
0&
z&!
z&"
0&#
bx &$
b1 '
0'!
bz '"
0'#
bx '$
b1 (
b0 (!
bz ("
0(#
b0 ($
0)
b0 )!
bz )"
0)#
b0 )$
0*
b0 *!
bz *"
b0 *#
b0 *$
b1 +
b0 +!
z+"
0+#
b0 +$
x,
b0 ,!
z,"
b0 ,#
b0 ,$
x-
0-!
0-"
b0 -#
b0 -$
b0 .
z.!
1."
b0 .#
b0 .$
0/
bz /!
bz /"
0/#
b0 /$
x0
bz 0!
bz 0"
00#
b0 0$
x1
bz 1!
b0 1"
b110000 1#
bx 1$
x2
z2!
02"
b0 2#
b0 2$
bx 3
z3!
b0 3"
13#
b100 3$
bx 4
04!
04"
14#
bx 4$
b0 5
05!
05"
05#
x5$
b0 6
06!
06"
b0 6#
b0 6$
bx 7
z7!
07"
b0 7#
b0 8
z8!
08"
08#
09
bz 9!
09"
09#
bx :
0:!
0:"
b0 :#
bx ;
0;!
1;"
b0 ;#
0<
z<!
0<"
0<#
x=
z=!
0="
0=#
x>
z>!
0>"
0>#
x?
z?!
0?"
0?#
bx @
z@!
0@"
b0 @#
bx A
zA!
0A"
b0 A#
bx B
zB!
0B"
b0 B#
xC
zC!
0C"
b0 C#
b0 D
bzx D!
0D"
0D#
b1 E
bx E!
b0 E"
0E#
b0 F
b0 F!
b0 F"
b110000 F#
bx G
b0 G!
b0 G"
b0 G#
b0 H
b0 H!
1H"
1H#
0I
b0 I!
bzx I"
1I#
b0 J
b0 J!
bx J"
0J#
0K
b0 K!
b0 K"
b0 K#
bx L
b0 L!
b0 L"
b0 L#
bx M
b0 M!
0M"
0M#
bx N
b0 N!
0N"
0N#
b0 O
b0 O!
b11 O"
b0 O#
b0 P
b0 P!
b0 P"
0P#
bx Q
b0 Q!
b0 Q"
0Q#
b0 R
b0 R!
0R"
b0 R#
b0 S
b0 S!
0S"
b0 S#
b0 T
bz T!
0T"
0T#
b0 U
bz U!
0U"
0U#
b0 V
b0 V!
b0 V"
b0 V#
b0 W
b0 W!
0W"
b1010 W#
bx X
b0 X!
0X"
b1111 X#
b0 Y
b0 Y!
b0 Y"
b11111101100111111111000001101111 Y#
bx Z
b0 Z!
b0 Z"
0Z#
bx [
bz [!
b0 ["
0[#
bx \
bz \!
b0 \"
b11111101100111111111000001101111 \#
b0 ]
bz ]!
b0 ]"
b1010 ]#
1^
bz ^!
x^"
b100 ^#
bzx _
b0 _!
x_"
bx _#
0`
0`!
x`"
bx `#
1a
0a!
xa"
bx a#
0b
0b!
xb"
bx b#
0c
0c!
bx c"
bx c#
0d
0d!
b11111111111111111011000111100000 d"
bx d#
1e
0e!
bx e"
bx e#
b0 f
1f!
b11111101100111111111000001101111 f"
xf#
b0 g
1g!
bx g"
bx g#
b0 h
0h!
b110000 h"
bx h#
b0 i
0i!
b110000 i"
bx i#
0j
0j!
b110000 j"
xj#
0k
1k!
b110001001101100011010110101111101101101011001010110110101011111011001110110010101101110010111110011000000101110011011010110100101100110 k"
bx k#
0l
0l!
b110001001101100011010110101111101101101011001010110110101011111011001110110010101101110010111110011000000101110011011010110010101101101 l"
bx l#
0m
0m!
b1 m"
b10000 m#
b0 n
0n!
b100 n"
bx n#
0o
0o!
b100 o"
b1 o#
0p
0p!
b100 p"
b11111111111111111111111111111111 p#
0q
0q!
b100 q"
b0 q#
0r
0r!
1r"
b0 r#
0s
0s!
0s"
b1 s#
0t
0t!
0t"
b0 t#
0u
0u!
0u"
bx u#
b0 v
0v!
bzx v"
bx v#
b0 w
0w!
b0 w"
bx w#
b0 x
0x!
1x"
bx x#
b0 y
0y!
0y"
bx y#
b0 z
0z!
0z"
bx z#
0{
1{!
0{"
x{#
z|
1|!
bx |"
x|#
b0 }
bzx }!
x}"
x}#
b0 ~
bx ~!
x~"
bx ~#
$end

#100
b0 !#
0"#
0##
1~"

#1000
0!
0"

#2000
1!
1"
b10 '
b10 (
b10 +

#3000
0!
0"

#4000
1!
1"
b11 '
b11 (
b11 +

#5000
0!
0"

#6000
1!
1"
b100 '
b100 (
b100 +

#7000
0!
0"

#8000
1!
1"
b101 '
b101 (
b101 +

#9000
0!
0"

#10000
1!
1"
b110 '
b110 (
b110 +

#11000
0!
0"

#12000
1!
1"
b111 '
b111 (
b111 +

#13000
0!
0"

#14000
1!
1"
b1000 '
b1000 (
b1000 +

#15000
0!
0"

#16000
1!
1"
b1001 '
b1001 (
b1001 +

#17000
0!
0"

#18000
1!
1"
b1010 '
b1010 (
b1010 +

#19000
0!
0"

#20000
1!
1"
b1011 '
b1011 (
b1011 +

#21000
0!
0"

#22000
1!
1"
b1100 '
b1100 (
b1100 +

#23000
0!
0"

#24000
1!
1"
b1101 '
b1101 (
b1101 +

#25000
0!
0"

#26000
1!
1"
b1110 '
b1110 (
b1110 +

#27000
0!
0"

#28000
1!
1"
b1111 '
b1111 (
b1111 +

#29000
0!
0"

#30000
1!
1"
b10000 '
b10000 (
b10000 +

#31000
0!
0"

#32000
1!
1"
b10001 '
b10001 (
b10001 +

#33000
0!
0"

#34000
1!
1"
b10010 '
b10010 (
b10010 +

#35000
0!
0"

#36000
1!
1"
b10011 '
b10011 (
b10011 +

#37000
0!
0"

#38000
1!
1"
b10100 '
b10100 (
b10100 +

#39000
0!
0"

#40000
1!
1"
b10101 '
b10101 (
b10101 +

#41000
0!
0"

#42000
1!
1"
b10110 '
b10110 (
b10110 +

#43000
0!
0"

#44000
1!
1"
b10111 '
b10111 (
b10111 +

#45000
0!
0"

#46000
1!
1"
b11000 '
b11000 (
b11000 +

#47000
0!
0"

#48000
1!
1"
b11001 '
b11001 (
b11001 +

#49000
0!
0"

#50000
1!
1"
b11010 '
b11010 (
b11010 +

#51000
0!
0"

#52000
1!
1"
b11011 '
b11011 (
b11011 +

#53000
0!
0"

#54000
1!
1"
b11100 '
b11100 (
b11100 +

#55000
0!
0"

#56000
1!
1"
b11101 '
b11101 (
b11101 +

#57000
0!
0"

#58000
1!
1"
b11110 '
b11110 (
b11110 +

#59000
0!
0"

#60000
1!
1"
b11111 '
b11111 (
b11111 +

#61000
0!
0"

#62000
1!
1"
b100000 '
b100000 (
b100000 +

#63000
0!
0"

#64000
1!
1"
b100001 '
b100001 (
b100001 +

#65000
0!
0"

#66000
1!
1"
b100010 '
b100010 (
b100010 +

#67000
0!
0"

#68000
1!
1"
b100011 '
b100011 (
b100011 +

#69000
0!
0"

#70000
1!
1"
b100100 '
b100100 (
b100100 +

#71000
0!
0"

